[gd_scene load_steps=3 format=2]

[ext_resource path="res://tutorial/arrow.png" type="Texture" id=1]
[ext_resource path="res://RythmNode/arrow.gd" type="Script" id=2]

[node name="arrow" type="Sprite"]
position = Vector2( -2.82837, -2.82837 )
scale = Vector2( 0.2, 0.2 )
texture = ExtResource( 1 )
script = ExtResource( 2 )
color = Color( 1, 1, 1, 1 )
